{
    "name": "Valkyrie.Unity.Editor",
    "references": [
        "Valkyrie.Unity"
    ],
    "optionalUnityReferences": [],
    "includePlatforms": [
        "Editor"
    ],
    "excludePlatforms": [],
    "allowUnsafeCode": false
}