%YAML 1.1
%TAG !u! tag:unity3d.com,2011:
--- !u!114 &11400000
MonoBehaviour:
  m_ObjectHideFlags: 0
  m_PrefabParentObject: {fileID: 0}
  m_PrefabInternal: {fileID: 0}
  m_GameObject: {fileID: 0}
  m_Enabled: 1
  m_EditorHideFlags: 0
  m_Script: {fileID: 11500000, guid: da5f97c8ecaf7ee4aa8ff16c616a81b6, type: 3}
  m_Name: DefaultSettings
  m_EditorClassIdentifier: 
  TileSize: {x: 4, y: 1, z: 4}
  RoomSize: {x: 32, y: 32}
  GroundMaterial: {fileID: 10303, guid: 0000000000000000f000000000000000, type: 0}
